<?xml version="1.0" encoding="UTF-8" standalone="no"?>
<svg
   xmlns:dc="http://purl.org/dc/elements/1.1/"
   xmlns:cc="http://creativecommons.org/ns#"
   xmlns:rdf="http://www.w3.org/1999/02/22-rdf-syntax-ns#"
   xmlns:svg="http://www.w3.org/2000/svg"
   xmlns="http://www.w3.org/2000/svg"
   xmlns:sodipodi="http://sodipodi.sourceforge.net/DTD/sodipodi-0.dtd"
   xmlns:inkscape="http://www.inkscape.org/namespaces/inkscape"
   width="32mm"
   height="25mm"
   viewBox="0 0 32 25"
   version="1.1"
   id="svg872"
   inkscape:version="1.0.2 (e86c870879, 2021-01-15)"
   sodipodi:docname="icon.svg">
  <defs
     id="defs866" />
  <sodipodi:namedview
     id="base"
     pagecolor="#ffffff"
     bordercolor="#666666"
     borderopacity="1.0"
     inkscape:pageopacity="0.0"
     inkscape:pageshadow="2"
     inkscape:zoom="3.5496367"
     inkscape:cx="39.146878"
     inkscape:cy="57.553731"
     inkscape:document-units="mm"
     inkscape:current-layer="layer1"
     inkscape:document-rotation="0"
     showgrid="false"
     inkscape:window-width="1429"
     inkscape:window-height="970"
     inkscape:window-x="88"
     inkscape:window-y="63"
     inkscape:window-maximized="0" />
  <metadata
     id="metadata869">
    <rdf:RDF>
      <cc:Work
         rdf:about="">
        <dc:format>image/svg+xml</dc:format>
        <dc:type
           rdf:resource="http://purl.org/dc/dcmitype/StillImage" />
        <dc:title></dc:title>
      </cc:Work>
    </rdf:RDF>
  </metadata>
  <g
     inkscape:label="Capa 1"
     inkscape:groupmode="layer"
     id="layer1">
    <path
       style="fill:#000000;stroke-width:0.0846667"
       d="m 6.7119169,24.268954 c -1.60038,-0.32426 -2.95993,-1.66252 -3.38515,-3.33217 -0.16776,-0.65873 -0.16494,-1.95441 0.006,-2.61582 0.53198,-2.06203 2.25244,-3.38825 4.39545,-3.38825 1.31643,0 2.3849201,0.43971 3.2450101,1.33541 0.87582,0.91208 1.28106,1.98029 1.28341,3.38306 0.004,2.13383 -1.12035,3.7996 -3.0111901,4.46294 -0.58728,0.20603 -1.8881,0.28553 -2.53323,0.15483 z m 2.29663,-0.71237 c 1.0747901,-0.52585 1.6572001,-1.88423 1.6510501,-3.85084 -0.005,-1.53227 -0.33243,-2.58137 -1.0489898,-3.35874 -0.4619803,-0.50118 -0.9296103,-0.76439 -1.5234103,-0.85743 -1.22377,-0.19176 -2.23474,0.33804 -2.79727,1.46592 -0.79862,1.60123 -0.66838,4.31194 0.27134,5.64733 0.62833,0.8929 1.40929,1.28661 2.41184,1.21588 0.39113,-0.0276 0.73292,-0.11411 1.03544,-0.26212 z m 6.2496601,0.73144 c -0.87103,-0.22518 -1.57592,-0.84687 -2.01037,-1.77308 -0.22625,-0.48234 -0.27016,-0.68527 -0.29848,-1.37943 -0.0495,-1.21222 0.23838,-2.08024 0.94408,-2.84709 0.94104,-1.02258 2.26135,-1.30368 3.50402,-0.746 1.13253,0.50825 1.79531,1.64851 1.80072,3.09803 0.008,2.0072 -1.3309,3.61556 -3.06965,3.68879 -0.3362,0.0142 -0.72785,-0.004 -0.87032,-0.0412 z m 1.6335,-0.57568 c 0.38635,-0.18334 0.73107,-0.73099 0.86888,-1.38037 0.13497,-0.63601 0.0691,-2.2385 -0.11657,-2.8379 -0.17613,-0.56843 -0.55772,-1.1524 -0.9471,-1.4494 -0.42697,-0.32567 -1.20001,-0.35021 -1.61894,-0.0514 -1.03669,0.73945 -1.0992,3.70524 -0.10846,5.14524 0.43843,0.63724 1.26718,0.88464 1.92219,0.57382 z m 11.15236,0.44224 c -0.14064,-0.14064 -0.20782,-0.3026 -0.20782,-0.50107 0,-0.41012 0.0691,-0.54872 0.34473,-0.69124 0.34187,-0.17679 0.53726,-0.15446 0.83411,0.0953 0.55232,0.46474 0.20329,1.30481 -0.54212,1.30481 -0.12184,0 -0.31437,-0.0933 -0.4289,-0.20782 z m -7.40448,-2.70176 c 0,-2.64403 -0.006,-2.74808 -0.17548,-2.96333 -0.14778,-0.18787 -0.24232,-0.22309 -0.59888,-0.22309 -0.34597,0 -0.41839,-0.0252 -0.39602,-0.13789 0.0188,-0.0945 0.28028,-0.21045 0.83171,-0.36864 0.44238,-0.12691 0.91159,-0.27441 1.04268,-0.32777 0.13109,-0.0534 0.25491,-0.097 0.27517,-0.097 0.0202,0 0.0368,0.6477 0.0368,1.43933 0,0.79163 0.0229,1.43933 0.0508,1.43933 0.0279,0 0.39941,-0.32967 0.8255,-0.7326 0.99805,-0.94379 1.95518,-1.70813 2.38338,-1.90331 0.89432,-0.40764 1.8078,0.0523 1.61662,0.81404 -0.0603,0.24021 -0.44041,0.46721 -0.78236,0.46721 -0.12787,0 -0.3763,-0.0997 -0.55206,-0.22147 -0.23151,-0.16043 -0.37909,-0.20653 -0.53553,-0.16727 -0.20086,0.0504 -1.29482,0.95815 -1.70549,1.41517 l -0.18082,0.20123 1.36615,1.69111 c 1.39961,1.73251 1.7613,2.07656 2.18301,2.07656 0.18504,0 0.24148,0.0396 0.24148,0.16933 0,0.16339 -0.0564,0.16934 -1.60866,0.16934 -1.31619,0 -1.60867,-0.0214 -1.60867,-0.11758 0,-0.0673 0.12661,-0.14133 0.29633,-0.17317 0.21469,-0.0403 0.29634,-0.0997 0.29634,-0.21582 0,-0.15089 -2.03993,-2.72073 -2.20781,-2.78132 -0.0461,-0.0166 -0.0782,0.65202 -0.0782,1.62983 v 1.65806 h -0.508 -0.508 z m 7.75113,0.01 c -0.0873,-0.40158 -0.55546,-5.04029 -0.55498,-5.49935 5.9e-4,-0.59073 0.1199,-0.87292 0.42181,-0.99797 0.51505,-0.21334 1.01801,0.17878 1.01808,0.79374 5e-5,0.37608 -0.48793,5.38922 -0.55518,5.70358 -0.0224,0.10478 -0.0965,0.1905 -0.16453,0.1905 -0.0681,0 -0.14242,-0.0857 -0.1652,-0.1905 z m -5.2958,-7.39154 c -1.14088,-0.0594 -3.23638,-0.22334 -4.65667,-0.36422 -3.0353,-0.30108 -6.92046,-0.4506 -12.3810801,-0.47648 l -3.61808,-0.0172 -0.56006,-0.28428 c -0.45725,-0.23208 -0.62265,-0.37642 -0.90095005,-0.78624 -0.30698,-0.45205 -0.57015,-1.1436 -0.57282,-1.50525 -5.5e-4,-0.0748 0.12719,-0.3034 0.28388,-0.507999 0.23517,-0.3070798 0.42056005,-0.4291998 1.06220005,-0.6996701 l 0.7773,-0.32767 1.37197,0.0817 c 1.90682,0.11352 2.60508,0.0976 2.69201,-0.0614 0.0382,-0.0699 0.32171,-1.0795 0.63002,-2.24366 1.18635,-4.47961 1.60419,-5.96276995 1.70404,-6.04868995 0.0392,-0.0337 0.6604803,-0.18791 1.3806701,-0.34264003 l 0.97024,-0.16205 1.01943,0.0182 c 0.83671,0.0149 4.39559,0.97271998 5.63323,1.27136998 1.61437,0.38956 4.02154,0.94345 5.03767,1.15918 0.65768,0.13963 0.81877,0.24457 1.09254,0.71173 0.18898,0.32247 0.23986,0.54848 0.31096,1.38122 0.0468,0.54762 0.14164,1.52885 0.21085,2.1805 0.11496,1.08245 0.11332,1.2817 -0.019,2.30575 -0.0796,0.6165003 -0.12046,1.1452491 -0.0907,1.1749891 0.0297,0.0297 0.31296,0.1272 0.62937,0.21658 1.30435,0.36845 2.70373,0.758 4.34296,1.20896 1.05949,0.29147 1.7769,0.53192 1.8415,0.61721 0.13602,0.17958 0.13585,0.48504 -3.4e-4,0.59806 -0.29292,0.24311 -5.05489,1.06668 -5.90516,1.02129 -0.11642,-0.006 -1.14512,-0.0599 -2.286,-0.11937 z"
       id="path847"
       sodipodi:nodetypes="cscsscsccscsssssssscssccsssscssssssssssssscscsssssssssssscssssssssscccsssssssscsccssssscssssscsssscscsssssccc" />
  </g>
</svg>
